{
  "replace": false,
  "values": [
    "cobblemon:polished_tumblestone_slab",
    "cobblemon:polished_black_tumblestone_slab",
    "cobblemon:polished_sky_tumblestone_slab",
	"cobblemon:tumblestone_brick_slab",
	"cobblemon:black_tumblestone_brick_slab",
	"cobblemon:sky_tumblestone_brick_slab"
  ]
}