{
  "baseYield": {
    "min": 2,
    "max": 3
  },
  "preferredBiomeTags": [
    "cobblemon:is_arid"
  ],
  "growthTime": {
    "min": 41,
    "max": 49
  },
  "refreshRate": {
    "min": 20,
    "max": 24
  },
  "favoriteMulches": [
    "sandy"
  ],
  "growthFactors": [],
  "randomizedGrowthPoints": true,
  "spawnConditions": [],
  "growthPoints": [
    {
      "position": {
        "x": 8.0,
        "y": 11.5,
        "z": 8.0
      },
      "rotation": {
        "x": 0.0,
        "y": 0.0,
        "z": 0.0
      }
    },
    {
      "position": {
        "x": 8.0,
        "y": 14.0,
        "z": 8.0
      },
      "rotation": {
        "x": 0.0,
        "y": 90.0,
        "z": 0.0
      }
    },
    {
      "position": {
        "x": 8.0,
        "y": 16.5,
        "z": 8.0
      },
      "rotation": {
        "x": 0.0,
        "y": -180.0,
        "z": 0.0
      }
    },
    {
      "position": {
        "x": 8.0,
        "y": 19.0,
        "z": 8.0
      },
      "rotation": {
        "x": 0.0,
        "y": -90.0,
        "z": 0.0
      }
    },
    {
      "position": {
        "x": 8.0,
        "y": 21.5,
        "z": 8.0
      },
      "rotation": {
        "x": 0.0,
        "y": 0.0,
        "z": 0.0
      }
    },
    {
      "position": {
        "x": 8.0,
        "y": 24.0,
        "z": 8.0
      },
      "rotation": {
        "x": 0.0,
        "y": 90.0,
        "z": 0.0
      }
    },
    {
      "position": {
        "x": 8.0,
        "y": 26.5,
        "z": 8.0
      },
      "rotation": {
        "x": 0.0,
        "y": -180.0,
        "z": 0.0
      }
    },
    {
      "position": {
        "x": 8.0,
        "y": 29.0,
        "z": 8.0
      },
      "rotation": {
        "x": 0.0,
        "y": -90.0,
        "z": 0.0
      }
    },
    {
      "position": {
        "x": 8.0,
        "y": 31.5,
        "z": 8.0
      },
      "rotation": {
        "x": 0.0,
        "y": 0.0,
        "z": 0.0
      }
    },
    {
      "position": {
        "x": 8.0,
        "y": 34.0,
        "z": 8.0
      },
      "rotation": {
        "x": 0.0,
        "y": 90.0,
        "z": 0.0
      }
    }
  ],
  "stageOnePositioning": {
    "position": {
      "x": 8.15,
      "y": 3.5,
      "z": 8.1
    },
    "rotation": {
      "x": 5.0,
      "y": -10.0,
      "z": -7.5
    }
  },
  "mutations": {
    "cobblemon:lum_berry": "cobblemon:sitrus_berry",
    "cobblemon:pinap_berry": "cobblemon:nomel_berry"
  },
  "sproutShape": "sword-sprout",
  "matureShape": "sword-mature",
  "flavors": {
    "SOUR": 15
  },
  "weight": 1.0,
  "tintIndexes": [],
  "flowerModel": "cobblemon:flower.geo",
  "flowerTexture": "cobblemon:flower",
  "fruitModel": "cobblemon:iapapa_berry.geo",
  "fruitTexture": "cobblemon:iapapa",
  "boneMealChance": 0.48
}